reference;subject;description;content
welcome-seller;Willkommen bei {shop_name};Diese E-Mail wird an den Verkäufer geschickt, wenn Ihr Verkäuferkonto korrekt erstellt wurde.;"<p>Willkommen <strong>{seller_name}</strong>!</p><p>Vielen Dank für die Erstellung eines Verkäuferkontos bei {shop_name}!</p><p>Ihr Verkäuferkonto wurde erfolgreich erstellt <a href=""{shop_url}"">{shop_name}</a></p>"
new-seller;Neuer registrierter Verkäufer;Diese E-Mail wird an den Administrator gesendet, wenn sich ein Kunde als Verkäufer registriert.;"<p>Neuer Kunde als Verkäufer registriert.</p><p>Verkäufer:</p><p>NAME: {seller_name}</p><p>SHOP: {seller_shop}</p><p>Sie können auf Ihr Geschäft zugreifen, um das neue Verkäuferkonto zu aktivieren <a href=""{shop_url}"">{shop_name}</a></p>"
edit-seller;"""{seller_name}"" er hat sein Verkäuferprofil geändert";Diese E-Mail wird an den Administrator gesendet wenn ein Verkäufer die Angaben seines Verkäuferkontos geändert hat.;"<p><strong>{seller_name}</strong> er hat sein Verkäuferprofil geändert.</p><p>Sie können auf Ihren Speicher zugreifen, um Änderungen zu bestätigen <a href=""{shop_url}"">{shop_name}</a></p>"
seller-activated;Verkäuferkonto akzeptiert;Diese E-Mail wird an den Verkäufer geschickt, wenn Ihr Verkäuferkonto angenommen wurde.;"<p>Ihr Verkäuferkonto wurde akzeptiert.</p><p>Jetzt können Sie mit dem Hinzufügen Ihrer Produkte beginnen <a href=""{shop_url}"">{shop_name}</a></p>"
seller-desactivated;Abgelehnter Verkäuferkonto;Diese E-Mail wird an den Verkäufer geschickt, wenn Ihr Verkäuferkonto abgelehnt oder deaktiviert wurde.;<p>Ihr Verkäuferkonto wurde abgelehnt <strong>{shop_name}</strong>.</p>
new-product;"""{seller_name}"" hat ein neues Produkt hinzugefügt";Diese E-Mail wird an den Administrator gesendet, wenn ein Verkäufer ein neues Produkt hinzufügt.;"<p><strong>{seller_name}</strong>hat ein neues Produkt hinzugefügt: <strong>{product_name}</strong>.</p><p>Sie können auf Ihren Speicher zugreifen, um ihn zu bestätigen <a href=""{shop_url}"">{shop_name}</a></p>"
product-activated;"""{product_name}"" wurde akzeptiert";Diese E-Mail wird an den Verkäufer geschickt, wenn Ihr Produkt akzeptiert wurde.;"<p>Ihr Produkt <strong>{product_name}</strong> wurde zum Verkauf angenommen.</p><p>Jetzt erhältlich in <a href=""{shop_url}"">{shop_name}</a></p>"
product-desactivated;" ""{product_name}"" wurde abgelehnt";Diese E-Mail wird an den Verkäufer geschickt, wenn Ihr Produkt abgelehnt wurde.;<p>Ihr Produkt <strong>{product_name}</strong> wurde abgelehnt in <strong>{shop_name}</strong>.</p>
edit-product;"""{seller_name}"" hat ein Produkt bearbeitet";Diese E-Mail wird an den Administrator gesendet, wenn ein Verkäufer ein Produkt bearbeitet hat.;"<p><strong>{seller_name}</strong> hat Ihr Produkt bearbeitet <strong>{product_name}</strong>.</p><p>Sie können auf Ihr Geschäft zugreifen, um es zu akzeptieren in <a href=""{shop_url}"">{shop_name}</a></p>"
new-order;"Neuer Bestellung. ""{product_name}"" - {order_reference}";Diese E-Mail wird an den Verkäufer geschickt, wenn Ihr Produkt von einem Kunden gekauft wurde.;"<p>Herzlichen Glückwunsch! <strong>{product_name}</strong> wurde von einem Kunden im Laden gekauft <strong>{shop_name}</strong>.</p><p>Überprüfen Sie Ihren Verkäuferkonto bei in <a href=""{shop_url}"">{shop_name}</a></p>"
new-incidence;"Neue Ausgabe bei Bestellung erhalten ""{order_reference}""";Diese E-Mail wird an den Verkäufer geschickt, wenn ein Kunde Probleme mit einer Bestellung hat.;"<p>Es gab einen neuen Vorfall auf der Bestellung <strong>{order_reference}</strong>:</p><p>{description}</p><p>Zugriff auf Ihren Verkäuferkonto, um eine Antwort zu geben in <a href=""{shop_url}"">{shop_name}</a></p>"
new-message;"Neue Nachricht erhalten über ""{product_name}""";Diese E-Mail wird an den Verkäufer geschickt, wenn ein Kunde mehr Informationen über ein Produkt wissen möchte.;"<p>Sie haben eine neue Nachricht mit Verweis erhalten <strong>{incidence_reference}</strong>:</p><p>{description}</p><p>Zugriff auf Ihren Verkäuferkonto, um eine Antwort zu geben in <a href=""{shop_url}"">{shop_name}</a></p>"
new-response-seller;"Neue Antwort auf Ihre Nachricht mit Referenz ""{incidence_reference}""";Diese E-Mail wird an den Kunden gesendet, wenn der Verkäufer auf eine vorherige Nachricht antwortet.;"<p>Es gibt eine neue Antwort auf Ihre Nachricht mit Referenz <strong>{incidence_reference}</strong>:</p><p>{description}</p><p>Melden Sie sich bei Ihrem Konto an, um Ihren Nachrichtenverlauf zu überprüfen <a href=""{shop_url}"">{shop_name}</a></p>"
new-response-customer;"Neue Kundenreaktion auf Nachricht mit Referenz ""{incidence_reference}""";Diese E-Mail wird an den Verkäufer geschickt, wenn der Kunde auf eine vorherige Nachricht antwortet.;"<p>Es gibt eine neue Kundenreaktion in der Nachricht mit Referenz <strong>{incidence_reference}</strong>:</p><p>{description}</p><p>Zugriff auf Ihr Verkäuferkonto, um eine Antwort zu geben <a href=""{shop_url}"">{shop_name}</a></p>"
new-comment-admin;"Neuer Kommentar erhalten bei ""{seller_name}""";Diese E-Mail wird an den Administrator gesendet, wenn ein Kunde eine Bewertung an einen Verkäufer sendet.;"<p>Neuer Kommentar:</p><p>Grad der Zufriedenheit: {grade}/5</p><p>{comment}</p><p>Acceda a su tienda para validarlo <a href=""{shop_url}"">{shop_name}</a></p>"
new-comment-seller;Neuer Kommentar erhalten;Diese E-Mail wird an den Verkäufer geschickt, wenn ein Kunde eine Bewertung an einen Verkäufer sendet.;"<p>Neuer Kommentar:</p><p>Grad der Zufriedenheit: {grade}/5</p><p>{comment}</p><p>Sie können es sehen <a href=""{shop_url}"">{shop_name}</a></p>"
seller-transfer-accepted;Zahlungsaufforderung akzeptiert;Diese E-Mail wird an den Verkäufer gesendet, wenn ein Administrator eine Provisionsübertragung akzeptiert.;"<p>Ihre Zahlungsanforderung wurde von unserem Buchhaltungs-Team bestätigt. Eine Menge von <strong>{amount}</strong> wurde auf Ihr Konto übertragen {payment}.</p><p>Sie können auf Ihr Verkäuferkonto zugreifen, um weitere Informationen zu erhalten <a href={shop_url}"">{shop_name}</a></p>"
seller-payment-request;Neue Zahlungsaufforderung;Diese E-Mail wird an den Administrator gesendet, wenn ein Verkäufer einen Provisionsübertragungsantrag stellt.;"<p>Neuer Antrag auf Zahlung von Provisionen. Verkäufer {seller_name} möchte in Ihrem {amount} Konto einen Betrag von <strong>{payment}</strong> erhalten.</p><p>Sie können auf Ihren Speicher zugreifen, um ihn zu bestätigen <a href={shop_url}"">{shop_name}</a></p>"
seller-order-changed;Bestellung {order_reference} aktualisiert;Diese E-Mail wird an den Administrator gesendet, wenn ein Verkäufer den Status seiner Bestellung ändert.;"<p>Der Verkäufer {Verkäufer_Name} hat den Status Ihrer Bestellung <strong>{order_reference}</strong> von Ihrem Verkäuferkonto geändert.</p><p>Sie können auf Ihren Shop zugreifen, um ihn zu überprüfen <a href=""{shop_url}"">{shop_name}</a></p>"